<svg id="wallet-money_linear_wallet-money" data-name="wallet-money/linear/wallet-money" xmlns="http://www.w3.org/2000/svg" width="71.315" height="71.315" viewBox="0 0 71.315 71.315">
  <g id="vuesax_linear_wallet-money" data-name="vuesax/linear/wallet-money">
    <path id="Vector" d="M21.246,0V6.032c0,5.111-4.754,9.241-10.608,9.241S0,11.143,0,6.032V0C0,5.111,4.754,8.736,10.638,8.736,16.492,8.736,21.246,5.081,21.246,0Z" transform="translate(10.702 50.1)" fill="none" stroke="#43acdc" stroke-linecap="round" stroke-linejoin="round" stroke-width="4"/>
    <path id="Vector-2" data-name="Vector" d="M21.276,9.212a7.8,7.8,0,0,1-1.129,4.041c-1.753,2.882-5.349,4.695-9.509,4.695s-7.756-1.842-9.509-4.695A7.8,7.8,0,0,1,0,9.212,8.63,8.63,0,0,1,3.09,2.7,11.341,11.341,0,0,1,10.608,0a11.5,11.5,0,0,1,7.518,2.7A8.448,8.448,0,0,1,21.276,9.212Z" transform="translate(10.668 32.716)" fill="none" stroke="#43acdc" stroke-linecap="round" stroke-linejoin="round" stroke-width="4"/>
    <path id="Vector-3" data-name="Vector" d="M21.246,9.241v8.172c0,5.111-4.754,8.736-10.608,8.736S0,22.494,0,17.413V9.241C0,4.13,4.754,0,10.638,0a11.5,11.5,0,0,1,7.518,2.7A8.692,8.692,0,0,1,21.246,9.241Z" transform="translate(10.702 32.686)" fill="none" stroke="#43acdc" stroke-linecap="round" stroke-linejoin="round" stroke-width="4"/>
    <path id="Vector-4" data-name="Vector" d="M15.241,3.031V9.152a3.051,3.051,0,0,1-2.971,3.031H6.445A6.336,6.336,0,0,1,.027,6.626,5.968,5.968,0,0,1,1.81,1.783,5.922,5.922,0,0,1,6.089,0H12.27A3.051,3.051,0,0,1,15.241,3.031Z" transform="translate(50.132 29.566)" fill="none" stroke="#43acdc" stroke-linecap="round" stroke-linejoin="round" stroke-width="4"/>
    <path id="Vector-5" data-name="Vector" d="M0,20.8V14.857C0,6.775,4.873,1.129,12.45.178A15.815,15.815,0,0,1,14.857,0H41.6a13.588,13.588,0,0,1,2.229.149C51.5,1.04,56.458,6.716,56.458,14.857v4.309H50.277a6.123,6.123,0,0,0-6.062,6.626,6.336,6.336,0,0,0,6.418,5.557h5.824v4.309c0,8.914-5.943,14.857-14.857,14.857H34.172" transform="translate(5.943 10.4)" fill="none" stroke="#43acdc" stroke-linecap="round" stroke-linejoin="round" stroke-width="4"/>
    <path id="Vector-6" data-name="Vector" d="M0,0H71.315V71.315H0Z" transform="translate(71.315 71.315) rotate(180)" fill="none" opacity="0"/>
  </g>
</svg>
