<svg id="close-circle_bulk" data-name="close-circle/bulk" xmlns="http://www.w3.org/2000/svg" width="34" height="34" viewBox="0 0 34 34">
  <g id="vuesax_bulk_close-circle" data-name="vuesax/bulk/close-circle">
    <g id="close-circle">
      <path id="Vector" d="M28.333,14.167A14.167,14.167,0,1,1,14.167,0,14.167,14.167,0,0,1,28.333,14.167Z" transform="translate(2.833 2.833)" fill="#e40000" opacity="0.4"/>
      <path id="Vector-2" data-name="Vector" d="M6.57,5.068,9.828,1.81a1.062,1.062,0,0,0-1.5-1.5L5.068,3.566,1.81.308a1.062,1.062,0,0,0-1.5,1.5L3.566,5.068.308,8.326a1.069,1.069,0,0,0,0,1.5,1.06,1.06,0,0,0,1.5,0L5.068,6.57,8.326,9.828a1.06,1.06,0,0,0,1.5,0,1.069,1.069,0,0,0,0-1.5Z" transform="translate(11.932 11.932)" fill="#e40000"/>
      <path id="Vector-3" data-name="Vector" d="M0,0H34V34H0Z" fill="none" opacity="0"/>
    </g>
  </g>
</svg>
