<svg id="arrow-left_broken" data-name="arrow-left/broken" xmlns="http://www.w3.org/2000/svg" width="19.344" height="19.344" viewBox="0 0 19.344 19.344">
  <g id="vuesax_broken_arrow-left" data-name="vuesax/broken/arrow-left">
    <g id="arrow-left">
      <path id="Vector" d="M4.892,0,0,4.892,4.892,9.785" transform="translate(2.821 4.78)" fill="none" stroke="#646363" stroke-linecap="round" stroke-linejoin="round" stroke-width="1.5"/>
      <path id="Vector-2" data-name="Vector" d="M7.512,0H0" transform="translate(2.821 9.672)" fill="none" stroke="#646363" stroke-linecap="round" stroke-linejoin="round" stroke-width="1.5"/>
      <path id="Vector-3" data-name="Vector" d="M2.8,0H0" transform="translate(13.581 9.672)" fill="none" stroke="#646363" stroke-linecap="round" stroke-linejoin="round" stroke-width="1.5"/>
      <path id="Vector-4" data-name="Vector" d="M0,0H19.344V19.344H0Z" fill="none" opacity="0"/>
    </g>
  </g>
</svg>
