<svg id="document-upload_linear" data-name="document-upload/linear" xmlns="http://www.w3.org/2000/svg" width="24" height="24" viewBox="0 0 24 24">
  <g id="vuesax_linear_document-upload" data-name="vuesax/linear/document-upload">
    <g id="document-upload">
      <path id="Vector" d="M2,6V0L0,2" transform="translate(7 11)" fill="none" stroke="#b8bac3" stroke-linecap="round" stroke-linejoin="round" stroke-width="1.5"/>
      <path id="Vector-2" data-name="Vector" d="M0,0,2,2" transform="translate(9 11)" fill="none" stroke="#b8bac3" stroke-linecap="round" stroke-linejoin="round" stroke-width="1.5"/>
      <path id="Vector-3" data-name="Vector" d="M20,8v5c0,5-2,7-7,7H7c-5,0-7-2-7-7V7C0,2,2,0,7,0h5" transform="translate(2 2)" fill="none" stroke="#b8bac3" stroke-linecap="round" stroke-linejoin="round" stroke-width="1.5"/>
      <path id="Vector-4" data-name="Vector" d="M8,8H4C1,8,0,7,0,4V0Z" transform="translate(14 2)" fill="none" stroke="#b8bac3" stroke-linecap="round" stroke-linejoin="round" stroke-width="1.5"/>
      <path id="Vector-5" data-name="Vector" d="M0,0H24V24H0Z" fill="none" opacity="0"/>
    </g>
  </g>
</svg>
