<svg id="vuesax_linear_calendar-2" data-name="vuesax/linear/calendar-2" xmlns="http://www.w3.org/2000/svg" width="66" height="66" viewBox="0 0 66 66">
  <g id="calendar-2">
    <path id="Vector" d="M0,0V8.25" transform="translate(22 5.5)" fill="none" stroke="#ffa732" stroke-linecap="round" stroke-linejoin="round" stroke-width="3"/>
    <path id="Vector-2" data-name="Vector" d="M0,0V8.25" transform="translate(44 5.5)" fill="none" stroke="#ffa732" stroke-linecap="round" stroke-linejoin="round" stroke-width="3"/>
    <path id="Vector-3" data-name="Vector" d="M0,0H46.75" transform="translate(9.625 24.997)" fill="none" stroke="#ffa732" stroke-linecap="round" stroke-linejoin="round" stroke-width="3"/>
    <path id="Vector-4" data-name="Vector" d="M49.5,13.75V37.125c0,8.25-4.125,13.75-13.75,13.75h-22C4.125,50.875,0,45.375,0,37.125V13.75C0,5.5,4.125,0,13.75,0h22C45.375,0,49.5,5.5,49.5,13.75Z" transform="translate(8.25 9.625)" fill="none" stroke="#ffa732" stroke-linecap="round" stroke-linejoin="round" stroke-width="3"/>
    <path id="Vector-5" data-name="Vector" d="M0,0H66V66H0Z" fill="none" opacity="0"/>
    <path id="Vector-6" data-name="Vector" d="M.495.5H.519" transform="translate(32.493 37.175)" fill="none" stroke="#ffa732" stroke-linecap="round" stroke-linejoin="round" stroke-width="3"/>
    <path id="Vector-7" data-name="Vector" d="M.495.5H.519" transform="translate(22.315 37.175)" fill="none" stroke="#ffa732" stroke-linecap="round" stroke-linejoin="round" stroke-width="3"/>
    <path id="Vector-8" data-name="Vector" d="M.495.5H.519" transform="translate(22.315 45.425)" fill="none" stroke="#ffa732" stroke-linecap="round" stroke-linejoin="round" stroke-width="3"/>
  </g>
</svg>
