<svg id="logout_linear" data-name="logout/linear" xmlns="http://www.w3.org/2000/svg" width="24" height="24" viewBox="0 0 24 24">
  <g id="vuesax_linear_logout" data-name="vuesax/linear/logout">
    <g id="logout">
      <path id="Vector" d="M0,5.12,2.56,2.56,0,0" transform="translate(17.44 9.5)" fill="none" stroke="#EC1E28" stroke-linecap="round" stroke-linejoin="round" stroke-width="1.5"/>
      <path id="Vector-2" data-name="Vector" d="M0,0H10.17" transform="translate(9.76 12.06)" fill="none" stroke="#EC1E28" stroke-linecap="round" stroke-linejoin="round" stroke-width="1.5"/>
      <path id="Vector-3" data-name="Vector" d="M8,16A7.651,7.651,0,0,1,0,8,7.651,7.651,0,0,1,8,0" transform="translate(3.76 4)" fill="none" stroke="#EC1E28" stroke-linecap="round" stroke-linejoin="round" stroke-width="1.5"/>
      <path id="Vector-4" data-name="Vector" d="M0,0H24V24H0Z" transform="translate(24 24) rotate(180)" fill="none" opacity="0"/>
    </g>
  </g>
</svg>
