<svg xmlns="http://www.w3.org/2000/svg" width="53.34" height="57.709" viewBox="0 0 53.34 57.709">
  <path id="Path_67219" data-name="Path 67219" d="M57.39,13.79a3.975,3.975,0,0,0-1.353-3.607A3.967,3.967,0,0,0,52.431,8.83c-2.046.375-3.568,2.486-4.328,3.793-.041-.025-.085-.041-.126-.065A6.168,6.168,0,0,0,48.3,8.245c.727-1.087,2.38-3.945,1.3-6.1C48.892.721,47.2,0,44.586,0c-3.19,0-5.24.7-6.093,2.081a2.874,2.874,0,0,0-.4,1.835A7.123,7.123,0,0,0,35.809,5.26a5.572,5.572,0,0,0-2.946-.751,5.05,5.05,0,0,0-5.258,4.127c-2.38-.781-4.6-.239-5.853,1.507-1.287,1.785-1.335,4.836,1.456,7.628a16.923,16.923,0,0,1,3.731,6.984,9.328,9.328,0,0,0-3.41.551l-.09.038-1.387.693c-.084.041-.17.073-.255.108a11.829,11.829,0,0,1,1.05-5,.9.9,0,0,0-.8-1.3H18.436a.9.9,0,0,0-.9.9A32.059,32.059,0,0,0,18,25.823l-.96-.481a.782.782,0,0,0-.09-.038c-.152-.057-3.772-1.381-6.531.287a6.324,6.324,0,0,0-2.8,4.954,17.435,17.435,0,0,0-.086,3.72H6.8a2.705,2.705,0,0,0-2.7,2.894c.32,4.491,1.828,15.443,8.879,20.115a2.678,2.678,0,0,0,1.484.436H44.188a2.681,2.681,0,0,0,1.486-.436c7.05-4.671,8.558-15.624,8.88-20.115a2.712,2.712,0,0,0-.721-2.032c-.028-.029-.061-.05-.09-.078a3.143,3.143,0,0,0,1.619-2.587,2.924,2.924,0,0,0-1.509-2.214,3.072,3.072,0,0,0-.116-2.721,2.943,2.943,0,0,0-1.8-1.235,3.719,3.719,0,0,0-.18-1.5,4.953,4.953,0,0,0,2.531-3.464,4.585,4.585,0,0,0-.682-3.2C54.91,17.364,57.021,15.841,57.39,13.79ZM39.423,5.376a.9.9,0,0,0,.564-1.27,1.234,1.234,0,0,1,.044-1.078C40.258,2.66,41.154,1.8,44.586,1.8c1.29,0,2.929.2,3.407,1.153.664,1.325-.843,3.841-1.424,4.619a.918.918,0,0,0-.09.935,4.254,4.254,0,0,1-.225,3.444,4.491,4.491,0,0,0-1.353-.008c-.055.009-.107.026-.161.037A4.39,4.39,0,0,0,42.891,9.09a5.358,5.358,0,0,0-4.769-.451,5.8,5.8,0,0,0-.971-2.156,6.222,6.222,0,0,1,2.271-1.107ZM24.484,16.495c-2.042-2.042-2.108-4.133-1.269-5.3.913-1.269,2.773-1.453,4.737-.471a.9.9,0,0,0,1.3-.807,3.608,3.608,0,1,1,7.214,0,.9.9,0,0,0,1.306.806,4.059,4.059,0,0,1,4.1-.142,2.635,2.635,0,0,1,1.112,2.164,5.732,5.732,0,0,0-1.781,2.132,9.241,9.241,0,0,0-.4,5.657,4.418,4.418,0,0,0-1.578.09l-1.022.253a7.574,7.574,0,0,0-4.023,2.569l-2.74,3.378a5.221,5.221,0,0,0-2.531-1.741C27.828,21.248,26.342,18.352,24.484,16.495Zm3.24,17.77,2.344-2.879L31.182,32.5a.9.9,0,1,0,1.275-1.275l-1.246-1.246,1.144-1.408.739.74a.9.9,0,1,0,1.276-1.275l-.873-.873,1.713-2.111,1.708,1.709a.9.9,0,1,0,1.275-1.275l-1.739-1.74a5.745,5.745,0,0,1,2.19-1.113l1.019-.253a2.634,2.634,0,0,1,2.491.692l1,1a2.643,2.643,0,0,1,.691,2.491l-.252,1.016a5.755,5.755,0,0,1-1.958,3.066l-4.458,3.619ZM20.712,21.641a12.979,12.979,0,0,0-.7,4.806h-.076a33.954,33.954,0,0,1-.579-4.806ZM9.412,30.77a4.637,4.637,0,0,1,1.933-3.628c1.883-1.144,4.587-.278,4.934-.158l1.341.67a5.915,5.915,0,0,0,5.241,0l1.346-.674c.471-.168,4.328-1.435,6.059,1.3L25.4,34.265H9.35a15.509,15.509,0,0,1,.062-3.495Zm35.264,25a.9.9,0,0,1-.491.136H14.463a.9.9,0,0,1-.491-.136C7.589,51.54,6.2,41.252,5.9,37.029a.886.886,0,0,1,.237-.674.9.9,0,0,1,.663-.287H51.854a.9.9,0,0,1,.663.287.887.887,0,0,1,.238.674C52.453,41.256,51.061,51.541,44.676,55.769ZM52.205,28.48c.2.335.09.965-.311,1.775a.9.9,0,0,0,.469,1.239c.481.2,1.184.683,1.2,1.046,0,.071-.05.717-1.988,1.725H40.038l2.732-2.22a7.574,7.574,0,0,0,2.573-4.029L45.6,27a4.418,4.418,0,0,0,.09-1.578,12.84,12.84,0,0,0,2.461.257,8.445,8.445,0,0,0,1.911-.216,2.589,2.589,0,0,1-.037,1.371.9.9,0,0,0,.871,1.122A1.776,1.776,0,0,1,52.205,28.48Zm3.414-15.014c-.293,1.628-2.824,3.114-3.775,3.547a.9.9,0,0,0-.263,1.458,2.97,2.97,0,0,1,.92,2.566A3.325,3.325,0,0,1,50.537,23.4c-2.036,1.021-5.2.1-5.637-.032a4.268,4.268,0,0,0-.472-.573l-1-1a4.3,4.3,0,0,0-.572-.472c-.133-.431-1.053-3.6-.034-5.638a3.325,3.325,0,0,1,2.365-1.96,2.969,2.969,0,0,1,2.567.919.9.9,0,0,0,1.457-.263c.435-.95,1.92-3.481,3.548-3.775a2.273,2.273,0,0,1,2.008.85,2.27,2.27,0,0,1,.853,2.008Z" transform="translate(-4.093 0)" fill="#f40004"/>
</svg>
