<svg id="vuesax_linear_receipt-item" data-name="vuesax/linear/receipt-item" xmlns="http://www.w3.org/2000/svg" width="59.524" height="59.524" viewBox="0 0 59.524 59.524">
  <path id="Vector" d="M14.881,9.921v6c0,3.919-2.48,6.4-6.4,6.4H0V4.985A5.007,5.007,0,0,1,5.01,0a9.908,9.908,0,0,1,9.871,9.921Z" transform="translate(39.683 4.96)" fill="none" stroke="#f40004" stroke-linecap="round" stroke-linejoin="round" stroke-width="2.5"/>
  <path id="Vector-2" data-name="Vector" d="M0,12.4V47.123a2.472,2.472,0,0,0,3.968,1.984l4.241-3.175a2.5,2.5,0,0,1,3.274.248L15.6,50.323a2.5,2.5,0,0,0,3.522,0l4.167-4.167a2.459,2.459,0,0,1,3.224-.223l4.241,3.175a2.486,2.486,0,0,0,3.968-1.984V4.96A4.975,4.975,0,0,1,39.683,0H9.921C2.48,0,0,4.44,0,9.921Z" transform="translate(4.96 4.96)" fill="none" stroke="#f40004" stroke-linecap="round" stroke-linejoin="round" stroke-width="2.5"/>
  <path id="Vector-3" data-name="Vector" d="M0,0H7.441" transform="translate(22.322 32.267)" fill="none" stroke="#f40004" stroke-linecap="round" stroke-linejoin="round" stroke-width="2.5"/>
  <path id="Vector-4" data-name="Vector" d="M0,0H7.441" transform="translate(22.322 22.346)" fill="none" stroke="#f40004" stroke-linecap="round" stroke-linejoin="round" stroke-width="2.5"/>
  <path id="Vector-5" data-name="Vector" d="M0,0H59.524V59.524H0Z" fill="none" opacity="0"/>
  <path id="Vector-6" data-name="Vector" d="M0,0H.022" transform="translate(14.87 32.242)" fill="none" stroke="#f40004" stroke-linecap="round" stroke-linejoin="round" stroke-width="2.5"/>
  <path id="Vector-7" data-name="Vector" d="M0,0H.022" transform="translate(14.87 22.322)" fill="none" stroke="#f40004" stroke-linecap="round" stroke-linejoin="round" stroke-width="2.5"/>
</svg>
