<svg id="eye_unlock_linear" data-name="eye/unlock/linear" xmlns="http://www.w3.org/2000/svg" width="60.229" height="60.229" viewBox="0 0 60.229 60.229">
  <g id="vuesax_linear_unlock" data-name="vuesax/linear/unlock">
    <g id="unlock">
      <path id="Vector" d="M37.643,30.114h-25.1C2.51,30.114,0,27.6,0,17.567V12.548C0,2.51,2.51,0,12.548,0h25.1C47.681,0,50.19,2.51,50.19,12.548v5.019C50.19,27.6,47.681,30.114,37.643,30.114Z" transform="translate(5.019 25.095)" fill="none" stroke="#f40004" stroke-linecap="round" stroke-linejoin="round" stroke-width="3"/>
      <path id="Vector-2" data-name="Vector" d="M0,20.076V15.057C0,6.751,2.51,0,15.057,0,26.35,0,30.114,5.019,30.114,12.548" transform="translate(15.057 5.019)" fill="none" stroke="#f40004" stroke-linecap="round" stroke-linejoin="round" stroke-width="3"/>
      <path id="Vector-3" data-name="Vector" d="M12.548,6.274A6.274,6.274,0,1,1,6.274,0,6.274,6.274,0,0,1,12.548,6.274Z" transform="translate(23.84 33.879)" fill="none" stroke="#f40004" stroke-linecap="round" stroke-linejoin="round" stroke-width="3"/>
      <path id="Vector-4" data-name="Vector" d="M0,0H60.229V60.229H0Z" transform="translate(60.229 60.229) rotate(180)" fill="none" opacity="0"/>
    </g>
  </g>
</svg>
